{
  "images" : [
    {
      "idiom" : "iphone",
      "scale" : "1x",
      "filename" : "bateria3 copia 2.png"
    },
    {
      "idiom" : "iphone",
      "scale" : "2x",
      "filename" : "bateria3 copia.png"
    },
    {
      "idiom" : "iphone",
      "scale" : "3x",
      "filename" : "bateria3.png"
    }
  ],
  "info" : {
    "version" : 1,
    "author" : "xcode"
  }
}