{
  "images" : [
    {
      "idiom" : "iphone",
      "scale" : "1x",
      "filename" : "icono_audio copia.png"
    },
    {
      "idiom" : "iphone",
      "scale" : "2x",
      "filename" : "icono_audio copia 2.png"
    },
    {
      "idiom" : "iphone",
      "scale" : "3x",
      "filename" : "icono_audio.png"
    }
  ],
  "info" : {
    "version" : 1,
    "author" : "xcode"
  }
}