{
  "images" : [
    {
      "idiom" : "iphone",
      "scale" : "1x",
      "filename" : "llamada copia 2.png"
    },
    {
      "idiom" : "iphone",
      "scale" : "2x",
      "filename" : "llamada copia.png"
    },
    {
      "idiom" : "iphone",
      "scale" : "3x",
      "filename" : "llamada.png"
    }
  ],
  "info" : {
    "version" : 1,
    "author" : "xcode"
  }
}