{
  "images" : [
    {
      "idiom" : "iphone",
      "scale" : "1x",
      "filename" : "buscar_activo.png"
    },
    {
      "idiom" : "iphone",
      "scale" : "2x",
      "filename" : "buscar_activo@2x.png"
    },
    {
      "idiom" : "iphone",
      "scale" : "3x",
      "filename" : "buscar_activo@3x.png"
    }
  ],
  "info" : {
    "version" : 1,
    "author" : "xcode"
  }
}