{
  "images" : [
    {
      "resizing" : {
        "mode" : "3-part-horizontal",
        "center" : {
          "mode" : "tile",
          "width" : 1
        },
        "cap-insets" : {
          "right" : 52,
          "left" : 14
        }
      },
      "idiom" : "universal",
      "filename" : "incidencias_btn.png",
      "scale" : "1x"
    },
    {
      "resizing" : {
        "mode" : "3-part-horizontal",
        "center" : {
          "mode" : "tile",
          "width" : 6
        },
        "cap-insets" : {
          "right" : 104,
          "left" : 23
        }
      },
      "idiom" : "universal",
      "filename" : "incidencias_btn@2x.png",
      "scale" : "2x"
    },
    {
      "resizing" : {
        "mode" : "3-part-horizontal",
        "center" : {
          "mode" : "tile",
          "width" : 6
        },
        "cap-insets" : {
          "right" : 155,
          "left" : 34
        }
      },
      "idiom" : "universal",
      "filename" : "incidencias_btn@3x.png",
      "scale" : "3x"
    }
  ],
  "info" : {
    "version" : 1,
    "author" : "xcode"
  }
}