{
  "images" : [
    {
      "idiom" : "iphone",
      "scale" : "1x",
      "filename" : "campo-1 copia.png"
    },
    {
      "idiom" : "iphone",
      "scale" : "2x",
      "filename" : "campo-1.png"
    },
    {
      "resizing" : {
        "mode" : "3-part-horizontal",
        "center" : {
          "mode" : "fill",
          "width" : 1
        },
        "capInsets" : {
          "right" : 14,
          "left" : 15
        }
      },
      "idiom" : "iphone",
      "filename" : "campo-2.png",
      "scale" : "3x"
    }
  ],
  "info" : {
    "version" : 1,
    "author" : "xcode"
  }
}