{
  "images" : [
    {
      "resizing" : {
        "mode" : "3-part-vertical",
        "center" : {
          "mode" : "fill",
          "height" : 1
        },
        "capInsets" : {
          "top" : 50,
          "bottom" : 51
        }
      },
      "idiom" : "universal",
      "filename" : "menu_item_active.png",
      "scale" : "1x"
    },
    {
      "resizing" : {
        "mode" : "3-part-vertical",
        "center" : {
          "mode" : "fill",
          "height" : 1
        },
        "capInsets" : {
          "top" : 101,
          "bottom" : 102
        }
      },
      "idiom" : "universal",
      "filename" : "menu_item_active@2x.png",
      "scale" : "2x"
    },
    {
      "resizing" : {
        "mode" : "3-part-vertical",
        "center" : {
          "mode" : "fill",
          "height" : 1
        },
        "capInsets" : {
          "top" : 152,
          "bottom" : 153
        }
      },
      "idiom" : "universal",
      "filename" : "menu_item_active@3x.png",
      "scale" : "3x"
    }
  ],
  "info" : {
    "version" : 1,
    "author" : "xcode"
  }
}